<?xml version="1.0" encoding="UTF-8"?>
<svg width="151px" height="74px" viewBox="0 0 151 74" version="1.1" xmlns="http://www.w3.org/2000/svg" xmlns:xlink="http://www.w3.org/1999/xlink">
    <!-- Generator: Sketch 51.2 (57519) - http://www.bohemiancoding.com/sketch -->
    <title>removal truck</title>
    <desc>Created with Sketch.</desc>
    <defs></defs>
    <g id="MVP-PAGES" stroke="none" stroke-width="1" fill="none" fill-rule="evenodd">
        <g id="removal-truck" transform="translate(0.000000, 0.824219)" fill="#F70079" fill-rule="nonzero">
            <path d="M148.483432,0.0787441406 L42.7834316,0.0787441406 C41.3916953,0.0787441406 40.2668633,1.37993945 40.2668633,2.98283984 L40.2668633,35.3118809 C40.2668633,36.7009629 41.3943496,37.8284492 42.7834316,37.8284492 L148.483432,37.8284492 C149.872514,37.8284492 151,36.7009629 151,35.3118809 L151,2.98283984 C151,1.37964453 149.875168,0.0787441406 148.483432,0.0787441406 Z" id="Shape"></path>
            <path d="M148.483432,42.8618809 L78.0165684,42.8618809 C76.6274863,42.8618809 75.5,43.9893672 75.5,45.3784492 L75.5,60.2896992 C75.447209,60.9013672 75.6159043,61.5177539 75.99075,62.0185312 C76.4638047,62.6526133 77.2114316,63.0277539 78.006541,63.0277539 L78.0091953,63.0277539 L85.5692227,63.0200859 C85.5819043,68.5593086 90.0891953,73.0615859 95.6334316,73.0615859 C101.185336,73.0615859 105.7,68.546627 105.7,62.9950176 L120.8,62.9950176 C120.8,68.5469219 125.314959,73.0615859 130.866568,73.0615859 C136.418473,73.0615859 140.933137,68.546627 140.933137,62.9950176 L148.483137,62.9950176 C149.872219,62.9950176 150.999705,61.8675312 150.999705,60.4784492 L150.999705,45.3784492 C151,43.9893672 149.872514,42.8618809 148.483432,42.8618809 Z M95.6334316,68.0287441 C92.857627,68.0287441 90.6,65.7714121 90.6,62.9953125 C90.6,60.2195078 92.857332,57.9618809 95.6334316,57.9618809 C98.4092363,57.9618809 100.666863,60.2192129 100.666863,62.9953125 C100.666568,65.7711172 98.4092363,68.0287441 95.6334316,68.0287441 Z M130.866568,68.0287441 C128.090764,68.0287441 125.833137,65.7714121 125.833137,62.9953125 C125.833137,60.2195078 128.090469,57.9618809 130.866568,57.9618809 C133.642373,57.9618809 135.9,60.2192129 135.9,62.9953125 C135.9,65.7711172 133.642668,68.0287441 130.866568,68.0287441 Z" id="Shape"></path>
            <path d="M67.95,42.8618809 L37.75,42.8618809 C36.360918,42.8618809 35.2334316,41.7343945 35.2334316,40.3453125 L35.2334316,15.1787441 C35.2334316,13.7896621 34.1059453,12.6621758 32.7168633,12.6621758 L12.5834316,12.6621758 C11.5541543,12.6621758 10.6280996,13.2888848 10.2455859,14.2450215 L0.181082031,39.4065762 C0.120917969,39.7236172 0.0604589844,40.0306309 0,40.3453125 L0,65.5118809 C0,66.9009629 1.12748633,68.0284492 2.51656836,68.0284492 L11.4659727,68.0284492 C13.2125,71.0233809 16.4239043,73.0618809 20.1334316,73.0618809 C25.6853359,73.0618809 30.2,68.5469219 30.2,62.9953125 L40.2665684,62.9953125 C40.2665684,68.5472168 44.7815273,73.0618809 50.3331367,73.0618809 C55.8847461,73.0618809 60.4,68.5472168 60.4,62.9953125 L67.95,62.9953125 C69.339082,62.9953125 70.4665684,61.8678262 70.4665684,60.4787441 L70.4665684,45.3787441 C70.4665684,43.9893672 69.339082,42.8618809 67.95,42.8618809 Z M8.12893164,37.8287441 C7.22794531,37.8287441 6.61893164,36.9127168 6.96870898,36.0822168 L12.261377,23.4987852 C12.4551406,23.0331035 12.9131543,22.7287441 13.4189453,22.7287441 L21.3918633,22.7287441 C22.0864043,22.7287441 22.6502949,23.2923398 22.6502949,23.9871758 L22.6502949,36.5703125 C22.6502949,37.2648535 22.0866992,37.8287441 21.3918633,37.8287441 L8.12893164,37.8287441 Z M20.1334316,68.0287441 C17.357627,68.0287441 15.1,65.7714121 15.1,62.9953125 C15.1,60.2195078 17.357332,57.9618809 20.1334316,57.9618809 C22.9092363,57.9618809 25.1668633,60.2192129 25.1668633,62.9953125 C25.1665684,65.7711172 22.9092363,68.0287441 20.1334316,68.0287441 Z M50.3334316,68.0287441 C47.557627,68.0287441 45.3,65.7714121 45.3,62.9953125 C45.3,60.2195078 47.557332,57.9618809 50.3334316,57.9618809 C53.1092363,57.9618809 55.3668633,60.2192129 55.3668633,62.9953125 C55.3665684,65.7711172 53.1092363,68.0287441 50.3334316,68.0287441 Z" id="Shape"></path>
        </g>
    </g>
</svg>