<?xml version="1.0" encoding="UTF-8"?>
<svg width="15px" height="17px" viewBox="0 0 15 17" version="1.1" xmlns="http://www.w3.org/2000/svg" xmlns:xlink="http://www.w3.org/1999/xlink">
    <!-- Generator: Sketch 50.2 (55047) - http://www.bohemiancoding.com/sketch -->
    <title>Shape</title>
    <desc>Created with Sketch.</desc>
    <defs></defs>
    <g id="MVP-PAGES" stroke="none" stroke-width="1" fill="none" fill-rule="evenodd">
        <g id="blog-post" transform="translate(-113.000000, -141.000000)" fill="#F70079" fill-rule="nonzero">
            <path d="M125.5,153.016064 C124.866667,153.016064 124.3,153.272088 123.866667,153.673193 L117.925,150.131526 C117.966667,149.935241 118,149.738956 118,149.534137 C118,149.329317 117.966667,149.133032 117.925,148.936747 L123.8,145.429217 C124.25,145.855924 124.841667,146.120482 125.5,146.120482 C126.883333,146.120482 128,144.976908 128,143.560241 C128,142.143574 126.883333,141 125.5,141 C124.116667,141 123,142.143574 123,143.560241 C123,143.76506 123.033333,143.961345 123.075,144.157631 L117.2,147.665161 C116.75,147.238454 116.158333,146.973896 115.5,146.973896 C114.116667,146.973896 113,148.11747 113,149.534137 C113,150.950803 114.116667,152.094378 115.5,152.094378 C116.158333,152.094378 116.75,151.829819 117.2,151.403112 L123.133333,154.953313 C123.091667,155.13253 123.066667,155.320281 123.066667,155.508032 C123.066667,156.882028 124.158333,158 125.5,158 C126.841667,158 127.933333,156.882028 127.933333,155.508032 C127.933333,154.134036 126.841667,153.016064 125.5,153.016064 Z" id="Shape"></path>
        </g>
    </g>
</svg>